@startuml

class Carrier {
  + name : Char
  + phone : Char
}

class Insurance {
  + company_name : Char
  + cost : Integer
}

class Shipment {
  + name : Char
  + quantity : Integer
  + first_name : Char
  + last_Name : Char
  + email : Email
  + address : Char
  + city : Char
  + state : Char
  + zipcode : Char
  + country : Char
  + phone : Char
  + need_insurance : Boolean
  + carrier_quote : Integer
  + post_label : String
  + package_tag : Char
}

class ShipmentItem {
  + name : Char
  + quantity : Integer
}

Shipment "1" --> "0..1" Shipment
Shipment "1" --> "0..1" Insurance
ShipmentItem "*" --> "0..1" Shipment

@enduml